…
``` r
library("dplyr")

vw2rr_data <- read_excel("data_cols_format.xlsx")

#rename columns

vw2rr_data %>%
  rename(dex_no = "Dex No.")
```

```
## # A tibble: 681 × 16
##    dex_no Pokemon       HP   Atk   Def   SpA   SpD   Spe Total `Ability 1`
##    <chr>  <chr>      <dbl> <dbl> <dbl> <dbl> <dbl> <dbl> <dbl> <chr>      
##  1 #001   Bulbasaur     45    49    49    65    65    45   318 Solar Power
##  2 #002   Ivysaur       60    62    63    80    80    60   405 Solar Power
##  3 #003   Venusaur      80    87    85   103   100    80   535 Solar Power
##  4 #004   Charmander    39    52    43    60    50    65   309 Defiant    
##  5 #005   Charmeleon    58    64    58    80    65    80   405 Defiant    
##  6 #006   Charizard     75   101    75   109    75   100   535 Defiant    
##  7 #007   Squirtle      44    48    65    50    64    43   314 Shell Armor
##  8 #008   Wartortle     59    63    80    65    80    58   405 Shell Armor
##  9 #009   Blastoise     79    83   100    90   105    78   535 Shell Armor
## 10 #010   Caterpie      45    30    35    20    20    45   195 Shield Dust
## # ℹ 671 more rows
## # ℹ 6 more variables: `Ability 2` <chr>, `Hidden Ability` <chr>,
## #   `Type 1` <chr>, `Type 2` <chr>, `Evolution(s)` <chr>,
## #   `Additional Notes` <chr>
```
…
